MagFieldSolenoidTest                                 INFO Field at r,phi 0, 0,  with xyz: 0, 0, -2820 with value -1.6e-06, -1.24654e-06, 0.000901701
MagFieldSolenoidTest                                 INFO Field at r,phi 214, 0,  with xyz: 214, 0, -2820 with value -9.36888e-05, 0, 0.000897012
MagFieldSolenoidTest                                 INFO Field at r,phi 428, 0,  with xyz: 428, 0, -2820 with value -0.000189813, -4.811e-09, 0.000886407
MagFieldSolenoidTest                                 INFO Field at r,phi 642, 0,  with xyz: 642, 0, -2820 with value -0.000300444, -1e-07, 0.000863269
MagFieldSolenoidTest                                 INFO Field at r,phi 856, 0,  with xyz: 856, 0, -2820 with value -0.000437154, -2e-07, 0.000813918
MagFieldSolenoidTest                                 INFO Field at r,phi 0, 0,  with xyz: 0, 0, -1410 with value 7e-07, -1.16e-06, 0.00181916
MagFieldSolenoidTest                                 INFO Field at r,phi 214, 0,  with xyz: 214, 0, -1410 with value -3.193e-05, -1e-06, 0.00182366
MagFieldSolenoidTest                                 INFO Field at r,phi 428, 0,  with xyz: 428, 0, -1410 with value -6.31656e-05, -8.64103e-07, 0.00183693
MagFieldSolenoidTest                                 INFO Field at r,phi 642, 0,  with xyz: 642, 0, -1410 with value -9.12233e-05, -7.96296e-07, 0.00185855
MagFieldSolenoidTest                                 INFO Field at r,phi 856, 0,  with xyz: 856, 0, -1410 with value -0.000113998, -7.6e-07, 0.00188712
MagFieldSolenoidTest                                 INFO Field at r,phi 0, 0,  with xyz: 0, 0, 0 with value 8e-07, -1e-06, 0.0019972
MagFieldSolenoidTest                                 INFO Field at r,phi 214, 0,  with xyz: 214, 0, 0 with value 7e-07, -7.69318e-07, 0.00199883
MagFieldSolenoidTest                                 INFO Field at r,phi 428, 0,  with xyz: 428, 0, 0 with value 5.10256e-07, -6e-07, 0.00200339
MagFieldSolenoidTest                                 INFO Field at r,phi 642, 0,  with xyz: 642, 0, 0 with value 1.90741e-07, -4e-07, 0.0020108
MagFieldSolenoidTest                                 INFO Field at r,phi 856, 0,  with xyz: 856, 0, 0 with value -1.86486e-07, -3e-07, 0.00202007
MagFieldSolenoidTest                                 INFO Field at r,phi 0, 0,  with xyz: 0, 0, 1410 with value 1e-06, -6e-07, 0.00182096
MagFieldSolenoidTest                                 INFO Field at r,phi 214, 0,  with xyz: 214, 0, 1410 with value 3.36116e-05, -2.69318e-07, 0.00182547
MagFieldSolenoidTest                                 INFO Field at r,phi 428, 0,  with xyz: 428, 0, 1410 with value 6.47697e-05, 2.5641e-08, 0.00183873
MagFieldSolenoidTest                                 INFO Field at r,phi 642, 0,  with xyz: 642, 0, 1410 with value 9.25196e-05, 3.09259e-07, 0.00186034
MagFieldSolenoidTest                                 INFO Field at r,phi 856, 0,  with xyz: 856, 0, 1410 with value 0.000114975, 5.34595e-07, 0.00188854
MagFieldSolenoidTest                                 INFO Field at r,phi 0, 0,  with xyz: 0, 0, 2820 with value 1.2e-06, 5e-07, 0.0009018
MagFieldSolenoidTest                                 INFO Field at r,phi 214, 0,  with xyz: 214, 0, 2820 with value 9.29045e-05, 6e-07, 0.00089858
MagFieldSolenoidTest                                 INFO Field at r,phi 428, 0,  with xyz: 428, 0, 2820 with value 0.000190426, 6e-07, 0.000887733
MagFieldSolenoidTest                                 INFO Field at r,phi 642, 0,  with xyz: 642, 0, 2820 with value 0.000301498, 7e-07, 0.000864685
MagFieldSolenoidTest                                 INFO Field at r,phi 856, 0,  with xyz: 856, 0, 2820 with value 0.000438319, 6.13514e-07, 0.000815808
MagFieldSolenoidTest                                 INFO Field at r,phi 0, 1.5708,  with xyz: 0, 0, -2820 with value 3e-07, 0, 0.0008999
MagFieldSolenoidTest                                 INFO Field at r,phi 214, 1.5708,  with xyz: 1.31037e-14, 214, -2820 with value 8.30682e-07, -9.20416e-05, 0.000896649
MagFieldSolenoidTest                                 INFO Field at r,phi 428, 1.5708,  with xyz: 2.62074e-14, 428, -2820 with value 9.97719e-07, -0.00018937, 0.000885332
MagFieldSolenoidTest                                 INFO Field at r,phi 642, 1.5708,  with xyz: 3.93112e-14, 642, -2820 with value 1.26273e-06, -0.000300146, 0.000861822
MagFieldSolenoidTest                                 INFO Field at r,phi 856, 1.5708,  with xyz: 5.24149e-14, 856, -2820 with value 1.50055e-06, -0.000435929, 0.000811946
MagFieldSolenoidTest                                 INFO Field at r,phi 0, 1.5708,  with xyz: 0, 0, -1410 with value 7e-07, -1.16e-06, 0.00181916
MagFieldSolenoidTest                                 INFO Field at r,phi 214, 1.5708,  with xyz: 1.31037e-14, 214, -1410 with value 1.03163e-06, -3.41174e-05, 0.00182366
MagFieldSolenoidTest                                 INFO Field at r,phi 428, 1.5708,  with xyz: 2.62074e-14, 428, -1410 with value 1.32304e-06, -6.56598e-05, 0.00183694
MagFieldSolenoidTest                                 INFO Field at r,phi 642, 1.5708,  with xyz: 3.93112e-14, 642, -1410 with value 1.81934e-06, -9.40833e-05, 0.00185865
MagFieldSolenoidTest                                 INFO Field at r,phi 856, 1.5708,  with xyz: 5.24149e-14, 856, -1410 with value 2.52734e-06, -0.000117684, 0.00188724
MagFieldSolenoidTest                                 INFO Field at r,phi 0, 1.5708,  with xyz: 0, 0, 0 with value 8e-07, -1e-06, 0.0019972
MagFieldSolenoidTest                                 INFO Field at r,phi 214, 1.5708,  with xyz: 1.31037e-14, 214, 0 with value 1.03231e-06, -1.18197e-06, 0.00199883
MagFieldSolenoidTest                                 INFO Field at r,phi 428, 1.5708,  with xyz: 2.62074e-14, 428, 0 with value 1.34527e-06, -1.55417e-06, 0.00200348
MagFieldSolenoidTest                                 INFO Field at r,phi 642, 1.5708,  with xyz: 3.93112e-14, 642, 0 with value 1.82546e-06, -2.02969e-06, 0.0020108
MagFieldSolenoidTest                                 INFO Field at r,phi 856, 1.5708,  with xyz: 5.24149e-14, 856, 0 with value 2.51216e-06, -3.00638e-06, 0.00201998
MagFieldSolenoidTest                                 INFO Field at r,phi 0, 1.5708,  with xyz: 0, 0, 1410 with value 1e-06, -6e-07, 0.00182096
MagFieldSolenoidTest                                 INFO Field at r,phi 214, 1.5708,  with xyz: 1.31037e-14, 214, 1410 with value 1.13913e-06, 3.21092e-05, 0.0018256
MagFieldSolenoidTest                                 INFO Field at r,phi 428, 1.5708,  with xyz: 2.62074e-14, 428, 1410 with value 1.55326e-06, 6.31292e-05, 0.00183902
MagFieldSolenoidTest                                 INFO Field at r,phi 642, 1.5708,  with xyz: 3.93112e-14, 642, 1410 with value 2.18595e-06, 9.06786e-05, 0.00186075
MagFieldSolenoidTest                                 INFO Field at r,phi 856, 1.5708,  with xyz: 5.24149e-14, 856, 1410 with value 3.00449e-06, 0.000112464, 0.00188931
MagFieldSolenoidTest                                 INFO Field at r,phi 0, 1.5708,  with xyz: 0, 0, 2820 with value 1.2e-06, 5e-07, 0.0009018
MagFieldSolenoidTest                                 INFO Field at r,phi 214, 1.5708,  with xyz: 1.31037e-14, 214, 2820 with value 8.22235e-07, 9.26823e-05, 0.00089881
MagFieldSolenoidTest                                 INFO Field at r,phi 428, 1.5708,  with xyz: 2.62074e-14, 428, 2820 with value 9.19955e-07, 0.000190301, 0.000888245
MagFieldSolenoidTest                                 INFO Field at r,phi 642, 1.5708,  with xyz: 3.93112e-14, 642, 2820 with value 1.00206e-06, 0.000301663, 0.000865439
MagFieldSolenoidTest                                 INFO Field at r,phi 856, 1.5708,  with xyz: 5.24149e-14, 856, 2820 with value 1.003e-06, 0.000438983, 0.000816961
MagFieldSolenoidTest                                 INFO Field at r,phi 0, 3.14159,  with xyz: -0, 0, -2820 with value 1.01639e-06, -4.20652e-07, 0.0008999
MagFieldSolenoidTest                                 INFO Field at r,phi 214, 3.14159,  with xyz: -214, 2.62074e-14, -2820 with value 9.26125e-05, -1.99689e-07, 0.000896779
MagFieldSolenoidTest                                 INFO Field at r,phi 428, 3.14159,  with xyz: -428, 5.24149e-14, -2820 with value 0.000189826, -2.89443e-07, 0.000885643
MagFieldSolenoidTest                                 INFO Field at r,phi 642, 3.14159,  with xyz: -642, 7.86223e-14, -2820 with value 0.00030068, -2.99689e-07, 0.000862485
MagFieldSolenoidTest                                 INFO Field at r,phi 856, 3.14159,  with xyz: -856, 1.0483e-13, -2820 with value 0.000436946, -1.99793e-07, 0.000813121
MagFieldSolenoidTest                                 INFO Field at r,phi 0, 3.14159,  with xyz: -0, 0, -1410 with value 4.80663e-07, -1.45411e-06, 0.00181916
MagFieldSolenoidTest                                 INFO Field at r,phi 214, 3.14159,  with xyz: -214, 2.62074e-14, -1410 with value 3.35121e-05, -1.29962e-06, 0.00182376
MagFieldSolenoidTest                                 INFO Field at r,phi 428, 3.14159,  with xyz: -428, 5.24149e-14, -1410 with value 6.45165e-05, -1.29989e-06, 0.00183703
MagFieldSolenoidTest                                 INFO Field at r,phi 642, 3.14159,  with xyz: -642, 7.86223e-14, -1410 with value 9.2124e-05, -1.30011e-06, 0.00185875
MagFieldSolenoidTest                                 INFO Field at r,phi 856, 3.14159,  with xyz: -856, 1.0483e-13, -1410 with value 0.000114377, -1.2005e-06, 0.00188726
MagFieldSolenoidTest                                 INFO Field at r,phi 0, 3.14159,  with xyz: -0, 0, 0 with value 3.56997e-07, -1.22972e-06, 0.0019972
MagFieldSolenoidTest                                 INFO Field at r,phi 214, 3.14159,  with xyz: -214, 2.62074e-14, 0 with value 9.00446e-07, -1.13037e-06, 0.0019988
MagFieldSolenoidTest                                 INFO Field at r,phi 428, 3.14159,  with xyz: -428, 5.24149e-14, 0 with value 9.00518e-07, -1.28944e-06, 0.00200338
MagFieldSolenoidTest                                 INFO Field at r,phi 642, 3.14159,  with xyz: -642, 7.86223e-14, 0 with value 9.00622e-07, -1.29991e-06, 0.00201069
MagFieldSolenoidTest                                 INFO Field at r,phi 856, 3.14159,  with xyz: -856, 1.0483e-13, 0 with value 1.00062e-06, -1.30009e-06, 0.00201987
MagFieldSolenoidTest                                 INFO Field at r,phi 0, 3.14159,  with xyz: -0, 0, 1410 with value 4.17505e-07, -8.21842e-07, 0.00182096
MagFieldSolenoidTest                                 INFO Field at r,phi 214, 3.14159,  with xyz: -214, 2.62074e-14, 1410 with value -3.19603e-05, -8.30286e-07, 0.00182547
MagFieldSolenoidTest                                 INFO Field at r,phi 428, 3.14159,  with xyz: -428, 5.24149e-14, 1410 with value -6.33051e-05, -1.05353e-06, 0.00183873
MagFieldSolenoidTest                                 INFO Field at r,phi 642, 3.14159,  with xyz: -642, 7.86223e-14, 1410 with value -9.13863e-05, -1.1998e-06, 0.00186035
MagFieldSolenoidTest                                 INFO Field at r,phi 856, 3.14159,  with xyz: -856, 1.0483e-13, 1410 with value -0.000114209, -1.2001e-06, 0.00188872
MagFieldSolenoidTest                                 INFO Field at r,phi 0, 3.14159,  with xyz: -0, 0, 2820 with value 5.60692e-07, 3.09332e-07, 0.0009019
MagFieldSolenoidTest                                 INFO Field at r,phi 214, 3.14159,  with xyz: -214, 2.62074e-14, 2820 with value -9.13048e-05, 6.00207e-07, 0.00089871
MagFieldSolenoidTest                                 INFO Field at r,phi 428, 3.14159,  with xyz: -428, 5.24149e-14, 2820 with value -0.000188826, 6.00207e-07, 0.000888134
MagFieldSolenoidTest                                 INFO Field at r,phi 642, 3.14159,  with xyz: -642, 7.86223e-14, 2820 with value -0.000299889, 7.00104e-07, 0.000865295
MagFieldSolenoidTest                                 INFO Field at r,phi 856, 3.14159,  with xyz: -856, 1.0483e-13, 2820 with value -0.000436533, 8.00104e-07, 0.000816895
MagFieldSolenoidTest                                 INFO Field at r,phi 0, 4.71239,  with xyz: -0, -0, -2820 with value 1.01639e-06, -4.20652e-07, 0.0008999
MagFieldSolenoidTest                                 INFO Field at r,phi 214, 4.71239,  with xyz: -3.93112e-14, -214, -2820 with value 6e-07, 9.19122e-05, 0.00089711
MagFieldSolenoidTest                                 INFO Field at r,phi 428, 4.71239,  with xyz: -7.86223e-14, -428, -2820 with value 5.10345e-07, 0.000189325, 0.000886333
MagFieldSolenoidTest                                 INFO Field at r,phi 642, 4.71239,  with xyz: -1.17933e-13, -642, -2820 with value 5.00099e-07, 0.000300398, 0.000863485
MagFieldSolenoidTest                                 INFO Field at r,phi 856, 4.71239,  with xyz: -1.57245e-13, -856, -2820 with value 4.00297e-07, 0.000437132, 0.000814508
MagFieldSolenoidTest                                 INFO Field at r,phi 0, 4.71239,  with xyz: -0, -0, -1410 with value 4.80663e-07, -1.45411e-06, 0.00181916
MagFieldSolenoidTest                                 INFO Field at r,phi 214, 4.71239,  with xyz: -3.93112e-14, -214, -1410 with value 7.68854e-07, 3.17421e-05, 0.00182377
MagFieldSolenoidTest                                 INFO Field at r,phi 428, 4.71239,  with xyz: -7.86223e-14, -428, -1410 with value 6.99604e-07, 6.30054e-05, 0.00183712
MagFieldSolenoidTest                                 INFO Field at r,phi 642, 4.71239,  with xyz: -1.17933e-13, -642, -1410 with value 6.99604e-07, 9.09231e-05, 0.00185885
MagFieldSolenoidTest                                 INFO Field at r,phi 856, 4.71239,  with xyz: -1.57245e-13, -856, -1410 with value 6.99703e-07, 0.000113463, 0.00188736
MagFieldSolenoidTest                                 INFO Field at r,phi 0, 4.71239,  with xyz: -0, -0, 0 with value 3.56997e-07, -1.22972e-06, 0.0019972
MagFieldSolenoidTest                                 INFO Field at r,phi 214, 4.71239,  with xyz: -3.93112e-14, -214, 0 with value 6.68953e-07, -8.00168e-07, 0.00199873
MagFieldSolenoidTest                                 INFO Field at r,phi 428, 4.71239,  with xyz: -7.86223e-14, -428, 0 with value 5.09949e-07, -6.10355e-07, 0.00200329
MagFieldSolenoidTest                                 INFO Field at r,phi 642, 4.71239,  with xyz: -1.17933e-13, -642, 0 with value 4.90354e-07, -4.90741e-07, 0.0020106
MagFieldSolenoidTest                                 INFO Field at r,phi 856, 4.71239,  with xyz: -1.57245e-13, -856, 0 with value 3.99604e-07, -2.99914e-07, 0.00201987
MagFieldSolenoidTest                                 INFO Field at r,phi 0, 4.71239,  with xyz: -0, -0, 1410 with value 4.17505e-07, -8.21842e-07, 0.00182096
MagFieldSolenoidTest                                 INFO Field at r,phi 214, 4.71239,  with xyz: -3.93112e-14, -214, 1410 with value 5.6912e-07, -3.33608e-05, 0.00182536
MagFieldSolenoidTest                                 INFO Field at r,phi 428, 4.71239,  with xyz: -7.86223e-14, -428, 1410 with value 3.10058e-07, -6.46655e-05, 0.00183862
MagFieldSolenoidTest                                 INFO Field at r,phi 642, 4.71239,  with xyz: -1.17933e-13, -642, 1410 with value 9.97929e-08, -9.27267e-05, 0.00186021
MagFieldSolenoidTest                                 INFO Field at r,phi 856, 4.71239,  with xyz: -1.57245e-13, -856, 1410 with value -9.21888e-08, -0.000115463, 0.00188872
MagFieldSolenoidTest                                 INFO Field at r,phi 0, 4.71239,  with xyz: -0, -0, 2820 with value 5.60692e-07, 3.09332e-07, 0.0009019
MagFieldSolenoidTest                                 INFO Field at r,phi 214, 4.71239,  with xyz: -3.93112e-14, -214, 2820 with value 8.00099e-07, -9.15049e-05, 0.00089851
MagFieldSolenoidTest                                 INFO Field at r,phi 428, 4.71239,  with xyz: -7.86223e-14, -428, 2820 with value 8.00099e-07, -0.000188936, 0.000887733
MagFieldSolenoidTest                                 INFO Field at r,phi 642, 4.71239,  with xyz: -1.17933e-13, -642, 2820 with value 9.00099e-07, -0.000299789, 0.000864595
MagFieldSolenoidTest                                 INFO Field at r,phi 856, 4.71239,  with xyz: -1.57245e-13, -856, 2820 with value 1.0865e-06, -0.00043586, 0.000815995
MagFieldSolenoidTest                                 INFO Field at r,phi 0, 6.28319,  with xyz: 0, -0, -2820 with value 3e-07, 0, 0.0008999
MagFieldSolenoidTest                                 INFO Field at r,phi 214, 6.28319,  with xyz: 214, -5.24149e-14, -2820 with value -9.11125e-05, 1e-07, 0.00089711
MagFieldSolenoidTest                                 INFO Field at r,phi 428, 6.28319,  with xyz: 428, -1.0483e-13, -2820 with value -0.000188336, 2e-07, 0.000886333
MagFieldSolenoidTest                                 INFO Field at r,phi 642, 6.28319,  with xyz: 642, -1.57245e-13, -2820 with value -0.00029908, 4.09259e-07, 0.000863694
MagFieldSolenoidTest                                 INFO Field at r,phi 856, 6.28319,  with xyz: 856, -2.0966e-13, -2820 with value -0.000435146, 6e-07, 0.000815195
MagFieldSolenoidTest                                 INFO Field at r,phi 0, 6.28319,  with xyz: 0, -0, -1410 with value 7e-07, -1.16e-06, 0.00181916
MagFieldSolenoidTest                                 INFO Field at r,phi 214, 6.28319,  with xyz: 214, -5.24149e-14, -1410 with value -3.193e-05, -1e-06, 0.00182366
MagFieldSolenoidTest                                 INFO Field at r,phi 428, 6.28319,  with xyz: 428, -1.0483e-13, -1410 with value -6.31656e-05, -8.64103e-07, 0.00183693
MagFieldSolenoidTest                                 INFO Field at r,phi 642, 6.28319,  with xyz: 642, -1.57245e-13, -1410 with value -9.12233e-05, -7.96296e-07, 0.00185855
MagFieldSolenoidTest                                 INFO Field at r,phi 856, 6.28319,  with xyz: 856, -2.0966e-13, -1410 with value -0.000113998, -7.6e-07, 0.00188712
MagFieldSolenoidTest                                 INFO Field at r,phi 0, 6.28319,  with xyz: 0, -0, 0 with value 8e-07, -1e-06, 0.0019972
MagFieldSolenoidTest                                 INFO Field at r,phi 214, 6.28319,  with xyz: 214, -5.24149e-14, 0 with value 7e-07, -7.69318e-07, 0.00199883
MagFieldSolenoidTest                                 INFO Field at r,phi 428, 6.28319,  with xyz: 428, -1.0483e-13, 0 with value 5.10256e-07, -6e-07, 0.00200339
MagFieldSolenoidTest                                 INFO Field at r,phi 642, 6.28319,  with xyz: 642, -1.57245e-13, 0 with value 1.90741e-07, -4e-07, 0.0020108
MagFieldSolenoidTest                                 INFO Field at r,phi 856, 6.28319,  with xyz: 856, -2.0966e-13, 0 with value -1.86486e-07, -3e-07, 0.00202007
MagFieldSolenoidTest                                 INFO Field at r,phi 0, 6.28319,  with xyz: 0, -0, 1410 with value 1e-06, -6e-07, 0.00182096
MagFieldSolenoidTest                                 INFO Field at r,phi 214, 6.28319,  with xyz: 214, -5.24149e-14, 1410 with value 3.36116e-05, -2.69318e-07, 0.00182547
MagFieldSolenoidTest                                 INFO Field at r,phi 428, 6.28319,  with xyz: 428, -1.0483e-13, 1410 with value 6.47697e-05, 2.5641e-08, 0.00183873
MagFieldSolenoidTest                                 INFO Field at r,phi 642, 6.28319,  with xyz: 642, -1.57245e-13, 1410 with value 9.25196e-05, 3.09259e-07, 0.00186034
MagFieldSolenoidTest                                 INFO Field at r,phi 856, 6.28319,  with xyz: 856, -2.0966e-13, 1410 with value 0.000114975, 5.34595e-07, 0.00188854
MagFieldSolenoidTest                                 INFO Field at r,phi 0, 6.28319,  with xyz: 0, -0, 2820 with value 1.2e-06, 5e-07, 0.0009018
MagFieldSolenoidTest                                 INFO Field at r,phi 214, 6.28319,  with xyz: 214, -5.24149e-14, 2820 with value 9.29045e-05, 6e-07, 0.00089858
MagFieldSolenoidTest                                 INFO Field at r,phi 428, 6.28319,  with xyz: 428, -1.0483e-13, 2820 with value 0.000190426, 6e-07, 0.000887733
MagFieldSolenoidTest                                 INFO Field at r,phi 642, 6.28319,  with xyz: 642, -1.57245e-13, 2820 with value 0.000301498, 7e-07, 0.000864685
MagFieldSolenoidTest                                 INFO Field at r,phi 856, 6.28319,  with xyz: 856, -2.0966e-13, 2820 with value 0.000438319, 6.13514e-07, 0.000815808
